order,cor,model,color,RT Kc,RT Cl8,SUUR Kc,SUUR SG,Lam Kc
1,coef,bands-int,LR bands,-0.468550465,-0.5080755506,0.5538017284,0.4542964174,0.4618403288
2,coef,bands-int,int,0.3928302678,0.3911531405,0.0712527272,0.1099139694,-0.0522433564
3,coef,Filion,yellow,0.0951370289,0.0820312012,-0.179102013,-0.2325507414,-0.2360045508
4,coef,Filion,red,0.3516292303,0.2136684256,-0.1796204941,-0.0352911253,-0.1752292568
5,coef,Filion,black,-0.4508905201,-0.4011563822,0.4837070534,0.3504858381,0.3650002794
6,coef,Filion,green,-0.0841614455,-0.1586606692,0.2743674791,0.2545477069,0.0045982263
7,coef,Filion,blue,-0.1341649455,-0.0656462922,0.214690661,0.1574338947,-0.008488444
8,coef,hmm,aq,0.2557803112,0.1955573213,-0.3004282113,-0.1955513735,-0.062704843
9,coef,hmm,laz,0.0088928343,0.076174771,0.1598385241,0.1640031328,0.0641414286
10,coef,hmm,mal,0.1339319448,0.1622208515,-0.0362353773,-0.0351043373,0.0582802013
11,coef,hmm,rb,-0.253651511,-0.2837208984,0.247799187,0.1989010968,0.19200833
12,coef,Sexton,active,-0.1292270383,0.0453426207,0.3878636549,0.3878538137,0.296373418
13,coef,Sexton,HP1,-0.482996705,-0.498051514,0.4548536257,0.3005567917,0.248150062
14,coef,Sexton,Null,-0.4538492085,-0.4335307762,0.4816769918,0.4207044552,0.4751895855
15,coef,Sexton,Pc,-0.4011233141,-0.3003866584,0.3681381261,0.2687232382,0.4599483548
16,coef,Nurm,compact,-0.3873322149,-0.3781210168,0.2808428614,0.2410477297,0.3256985748
17,coef,Nurm,null,-0.0482517686,-0.0558784599,0.2023456738,0.1118186848,0.0679968741
18,coef,Nurm,open,0.4653391051,0.4150742046,-0.1883525712,-0.1684795665,-0.1378613587
1,p.value,bands-int,LR bands,4.70828828414965E-10,8.1298286750544E-12,3.68524261366444E-14,1.800461156491E-09,8.92119339965668E-10
2,p.value,bands-int,int,3.60145977869656E-07,4.07843421051543E-07,0.3751933204,0.1719620762,0.5158082946
3,p.value,Filion,yellow,1.04594170762048E-05,0.0001458259,6.49711111510619E-17,1.0442558472903E-27,1.59919537369045E-28
4,p.value,Filion,red,2.72566545131645E-60,1.92592341167181E-22,3.17804291304973E-16,0.1115773852,1.67187752790319E-15
5,p.value,Filion,black,1.9311383270418E-86,3.69834952645166E-67,4.86290500602738E-101,1.25821614273184E-50,4.59714115986935E-55
6,p.value,Filion,green,0.0860681963,0.0011506785,9.6561141936673E-09,1.11165666576329E-07,0.9248770412
7,p.value,Filion,blue,6.06860799184534E-10,0.0025476107,1.82975198951386E-23,3.43237435275554E-13,0.6964921519
8,p.value,hmm,aq,4.01623789514987E-85,7.81210120647661E-50,5.33798582552225E-117,1.57421857213906E-48,2.45936896022707E-06
9,p.value,hmm,laz,0.5745572184,1.46927698393709E-06,5.18130394547214E-24,2.36068349081422E-25,5.20225771805956E-05
10,p.value,hmm,mal,1.18404479126575E-36,3.58393601422149E-53,0.0007476432,0.0012465145,0.000000046
11,p.value,hmm,rb,5.99186253437036E-76,2.39972148895107E-95,1.87716062915545E-71,3.59343830809789E-46,2.56056792162464E-43
12,p.value,Sexton,active,0.0040146215,0.3145337255,3.50097697570387E-19,3.50881118573033E-19,1.79061399309147E-11
13,p.value,Sexton,HP1,0.0002870828,0.000171859,0.0007047391,0.0303884202,0.0760969236
14,p.value,Sexton,Null,2.26565261037212E-26,5.80477145763423E-24,6.06353701414127E-30,1.59438841394742E-22,4.41669106703475E-29
15,p.value,Sexton,Pc,2.05427583162579E-06,0.0004903073,1.51787529630234E-05,0.0019125101,3.26097647730153E-08
16,p.value,Nurm,compact,5.57958553809021E-34,2.44073908027153E-32,1.66703315098859E-17,3.42723109818689E-13,2.17097485987816E-23
17,p.value,Nurm,null,0.0388107707,0.0167000341,4.65927905218467E-18,1.69011639430919E-06,0.0039292028
18,p.value,Nurm,open,2.0770549851304E-50,1.87123550924972E-39,1.21982843650902E-08,3.75626641555931E-07,0.000031621
