track name="topotest" itemRgb="On"
chr2L	67150	156849	1	1		+	67150	156849	255,0,0
chr2L	250150	295749	1	1		+	250150	295749	255,0,0
chr2L	472050	488649	1	1		+	472050	488649	255,0,0
chr2L	809750	821449	1	1		+	809750	821449	255,0,0
chr2L	821450	852449	1	1		+	821450	852449	255,0,0
chr2L	852450	870849	1	1		+	852450	870849	255,0,0
chr2L	1078850	1107549	1	1		+	1078850	1107549	255,0,0
chr2L	1107550	1185449	1	1		+	1107550	1185449	255,0,0
chr2L	1615650	1728649	1	1		+	1615650	1728649	255,0,0
chr2L	1973150	1988549	1	1		+	1973150	1988549	255,0,0
chr2L	2130350	2193449	1	1		+	2130350	2193449	255,0,0
chr2L	2216050	2236449	1	1		+	2216050	2236449	255,0,0
chr2L	2361650	2375949	1	1		+	2361650	2375949	255,0,0
chr2L	2567450	2592349	1	1		+	2567450	2592349	255,0,0
chr2L	2740150	2769349	1	1		+	2740150	2769349	255,0,0
chr2L	2856850	2885149	1	1		+	2856850	2885149	255,0,0
chr2L	2885150	3173049	1	1		+	2885150	3173049	255,0,0
chr2L	3448750	3467449	1	1		+	3448750	3467449	255,0,0
chr2L	3467450	3479549	1	1		+	3467450	3479549	255,0,0
chr2L	4197950	4227949	1	1		+	4197950	4227949	255,0,0
chr2L	4440550	4460349	1	1		+	4440550	4460349	255,0,0
chr2L	4811950	4849149	1	1		+	4811950	4849149	255,0,0
chr2L	4849150	4973049	1	1		+	4849150	4973049	255,0,0
chr2L	4973050	5010349	1	1		+	4973050	5010349	255,0,0
chr2L	5010350	5054349	1	1		+	5010350	5054349	255,0,0
chr2L	5054350	5100249	1	1		+	5054350	5100249	255,0,0
chr2L	5270650	5325149	1	1		+	5270650	5325149	255,0,0
chr2L	5516150	5543049	1	1		+	5516150	5543049	255,0,0
chr2L	5944650	5981749	1	1		+	5944650	5981749	255,0,0
chr2L	5981750	6047349	1	1		+	5981750	6047349	255,0,0
chr2L	6047350	6071049	1	1		+	6047350	6071049	255,0,0
chr2L	6071050	6099149	1	1		+	6071050	6099149	255,0,0
chr2L	6323050	6357749	1	1		+	6323050	6357749	255,0,0
chr2L	6425250	6480449	1	1		+	6425250	6480449	255,0,0
chr2L	6480450	6497649	1	1		+	6480450	6497649	255,0,0
chr2L	6612150	6683049	1	1		+	6612150	6683049	255,0,0
chr2L	6852050	6919849	1	1		+	6852050	6919849	255,0,0
chr2L	6919850	6948649	1	1		+	6919850	6948649	255,0,0
chr2L	6948650	6971349	1	1		+	6948650	6971349	255,0,0
chr2L	7026950	7042349	1	1		+	7026950	7042349	255,0,0
chr2L	7042350	7065849	1	1		+	7042350	7065849	255,0,0
chr2L	7202650	7222349	1	1		+	7202650	7222349	255,0,0
chr2L	7782250	7808149	1	1		+	7782250	7808149	255,0,0
chr2L	7808150	7828749	1	1		+	7808150	7828749	255,0,0
chr2L	8030250	8042449	1	1		+	8030250	8042449	255,0,0
chr2L	8042450	8083349	1	1		+	8042450	8083349	255,0,0
chr2L	8158650	8197849	1	1		+	8158650	8197849	255,0,0
chr2L	8301950	8325049	1	1		+	8301950	8325049	255,0,0
chr2L	8363550	8383949	1	1		+	8363550	8383949	255,0,0
chr2L	8383950	8534649	1	1		+	8383950	8534649	255,0,0
chr2L	9758550	9792549	1	1		+	9758550	9792549	255,0,0
chr2L	9886350	9906249	1	1		+	9886350	9906249	255,0,0
chr2L	9906250	9919049	1	1		+	9906250	9919049	255,0,0
chr2L	9919050	9968449	1	1		+	9919050	9968449	255,0,0
chr2L	9968450	10010049	1	1		+	9968450	10010049	255,0,0
chr2L	10200650	10334649	1	1		+	10200650	10334649	255,0,0
chr2L	10334650	10386949	1	1		+	10334650	10386949	255,0,0
chr2L	10386950	10438349	1	1		+	10386950	10438349	255,0,0
chr2L	10479250	10518549	1	1		+	10479250	10518549	255,0,0
chr2L	10725650	10770449	1	1		+	10725650	10770449	255,0,0
chr2L	10966550	11010549	1	1		+	10966550	11010549	255,0,0
chr2L	11010550	11131249	1	1		+	11010550	11131249	255,0,0
chr2L	12094750	12110549	1	1		+	12094750	12110549	255,0,0
chr2L	12424950	12455649	1	1		+	12424950	12455649	255,0,0
chr2L	12998850	13021549	1	1		+	12998850	13021549	255,0,0
chr2L	13164950	13204149	1	1		+	13164950	13204149	255,0,0
chr2L	13204150	13221949	1	1		+	13204150	13221949	255,0,0
chr2L	13366250	13394949	1	1		+	13366250	13394949	255,0,0
chr2L	13768850	13837949	1	1		+	13768850	13837949	255,0,0
chr2L	15007550	15059649	1	1		+	15007550	15059649	255,0,0
chr2L	15749250	15768949	1	1		+	15749250	15768949	255,0,0
chr2L	16287350	16311149	1	1		+	16287350	16311149	255,0,0
chr2L	16311150	16327249	1	1		+	16311150	16327249	255,0,0
chr2L	16327250	16357349	1	1		+	16327250	16357349	255,0,0
chr2L	16656950	16679549	1	1		+	16656950	16679549	255,0,0
chr2L	16720950	16743749	1	1		+	16720950	16743749	255,0,0
chr2L	18118950	18159149	1	1		+	18118950	18159149	255,0,0
chr2L	18588750	18613149	1	1		+	18588750	18613149	255,0,0
chr2L	18613150	18707149	1	1		+	18613150	18707149	255,0,0
chr2L	18943950	19009249	1	1		+	18943950	19009249	255,0,0
chr2L	19009250	19053849	1	1		+	19009250	19053849	255,0,0
chr2L	19133850	19189449	1	1		+	19133850	19189449	255,0,0
chr2L	19427550	19453949	1	1		+	19427550	19453949	255,0,0
chr2L	19453950	19575749	1	1		+	19453950	19575749	255,0,0
chr2L	19575750	19588249	1	1		+	19575750	19588249	255,0,0
chr2L	20066150	20098649	1	1		+	20066150	20098649	255,0,0
chr2L	21052450	21179349	1	1		+	21052450	21179349	255,0,0
chr2L	21220550	21236349	1	1		+	21220550	21236349	255,0,0
chr2L	21657250	21684449	1	1		+	21657250	21684449	255,0,0
chr2R	1904150	1975049	1	1		+	1904150	1975049	255,0,0
chr2R	2500750	2520149	1	1		+	2500750	2520149	255,0,0
chr2R	2520150	2558049	1	1		+	2520150	2558049	255,0,0
chr2R	2558050	2646549	1	1		+	2558050	2646549	255,0,0
chr2R	2900550	2957449	1	1		+	2900550	2957449	255,0,0
chr2R	3427050	3478649	1	1		+	3427050	3478649	255,0,0
chr2R	3478650	3618049	1	1		+	3478650	3618049	255,0,0
chr2R	3618050	3672649	1	1		+	3618050	3672649	255,0,0
chr2R	3672650	3715249	1	1		+	3672650	3715249	255,0,0
chr2R	3804050	3827649	1	1		+	3804050	3827649	255,0,0
chr2R	3844050	3877249	1	1		+	3844050	3877249	255,0,0
chr2R	3955050	4044249	1	1		+	3955050	4044249	255,0,0
chr2R	4044250	4062349	1	1		+	4044250	4062349	255,0,0
chr2R	4487250	4520149	1	1		+	4487250	4520149	255,0,0
chr2R	4553350	4621349	1	1		+	4553350	4621349	255,0,0
chr2R	4779050	4836449	1	1		+	4779050	4836449	255,0,0
chr2R	4982850	5025449	1	1		+	4982850	5025449	255,0,0
chr2R	5025450	5078349	1	1		+	5025450	5078349	255,0,0
chr2R	5287950	5313349	1	1		+	5287950	5313349	255,0,0
chr2R	5313350	5332849	1	1		+	5313350	5332849	255,0,0
chr2R	5429150	5480449	1	1		+	5429150	5480449	255,0,0
chr2R	5708250	5751849	1	1		+	5708250	5751849	255,0,0
chr2R	5751850	5844149	1	1		+	5751850	5844149	255,0,0
chr2R	5913050	5935649	1	1		+	5913050	5935649	255,0,0
chr2R	5935650	5986749	1	1		+	5935650	5986749	255,0,0
chr2R	5986750	6010949	1	1		+	5986750	6010949	255,0,0
chr2R	6315650	6365549	1	1		+	6315650	6365549	255,0,0
chr2R	6696550	6762049	1	1		+	6696550	6762049	255,0,0
chr2R	6762050	6788049	1	1		+	6762050	6788049	255,0,0
chr2R	7166550	7194849	1	1		+	7166550	7194849	255,0,0
chr2R	7505050	7538049	1	1		+	7505050	7538049	255,0,0
chr2R	7877150	7931949	1	1		+	7877150	7931949	255,0,0
chr2R	8026550	8088449	1	1		+	8026550	8088449	255,0,0
chr2R	8207050	8225549	1	1		+	8207050	8225549	255,0,0
chr2R	8313650	8324749	1	1		+	8313650	8324749	255,0,0
chr2R	8340050	8396249	1	1		+	8340050	8396249	255,0,0
chr2R	8396250	8500949	1	1		+	8396250	8500949	255,0,0
chr2R	8500950	8523349	1	1		+	8500950	8523349	255,0,0
chr2R	9019950	9056749	1	1		+	9019950	9056749	255,0,0
chr2R	9085450	9128749	1	1		+	9085450	9128749	255,0,0
chr2R	9318950	9338649	1	1		+	9318950	9338649	255,0,0
chr2R	9370050	9395249	1	1		+	9370050	9395249	255,0,0
chr2R	9395250	9443849	1	1		+	9395250	9443849	255,0,0
chr2R	9710550	9748549	1	1		+	9710550	9748549	255,0,0
chr2R	9828250	9850049	1	1		+	9828250	9850049	255,0,0
chr2R	9850050	9879049	1	1		+	9850050	9879049	255,0,0
chr2R	10033450	10061849	1	1		+	10033450	10061849	255,0,0
chr2R	10104550	10158549	1	1		+	10104550	10158549	255,0,0
chr2R	10367450	10511549	1	1		+	10367450	10511549	255,0,0
chr2R	10741750	10758249	1	1		+	10741750	10758249	255,0,0
chr2R	10848950	10881249	1	1		+	10848950	10881249	255,0,0
chr2R	11236250	11268449	1	1		+	11236250	11268449	255,0,0
chr2R	11398950	11419349	1	1		+	11398950	11419349	255,0,0
chr2R	11419350	11461249	1	1		+	11419350	11461249	255,0,0
chr2R	11820950	11984449	1	1		+	11820950	11984449	255,0,0
chr2R	11984450	12026249	1	1		+	11984450	12026249	255,0,0
chr2R	12026250	12067749	1	1		+	12026250	12067749	255,0,0
chr2R	12067750	12091749	1	1		+	12067750	12091749	255,0,0
chr2R	12107950	12224649	1	1		+	12107950	12224649	255,0,0
chr2R	12224650	12235649	1	1		+	12224650	12235649	255,0,0
chr2R	12738150	12756949	1	1		+	12738150	12756949	255,0,0
chr2R	12891950	12986249	1	1		+	12891950	12986249	255,0,0
chr2R	13281150	13346249	1	1		+	13281150	13346249	255,0,0
chr2R	13346250	13480349	1	1		+	13346250	13480349	255,0,0
chr2R	13551950	13587049	1	1		+	13551950	13587049	255,0,0
chr2R	13587050	13682149	1	1		+	13587050	13682149	255,0,0
chr2R	13737050	13758949	1	1		+	13737050	13758949	255,0,0
chr2R	14013950	14072049	1	1		+	14013950	14072049	255,0,0
chr2R	14285250	14299849	1	1		+	14285250	14299849	255,0,0
chr2R	14299850	14332749	1	1		+	14299850	14332749	255,0,0
chr2R	14499850	14526649	1	1		+	14499850	14526649	255,0,0
chr2R	14575750	14600149	1	1		+	14575750	14600149	255,0,0
chr2R	14707050	14746149	1	1		+	14707050	14746149	255,0,0
chr2R	15009250	15030449	1	1		+	15009250	15030449	255,0,0
chr2R	15116250	15339649	1	1		+	15116250	15339649	255,0,0
chr2R	15339650	15392049	1	1		+	15339650	15392049	255,0,0
chr2R	16437350	16560449	1	1		+	16437350	16560449	255,0,0
chr2R	16883950	16912949	1	1		+	16883950	16912949	255,0,0
chr2R	16944650	16962649	1	1		+	16944650	16962649	255,0,0
chr2R	16962650	17031449	1	1		+	16962650	17031449	255,0,0
chr2R	17031450	17047149	1	1		+	17031450	17047149	255,0,0
chr2R	17047150	17139749	1	1		+	17047150	17139749	255,0,0
chr2R	17181550	17269449	1	1		+	17181550	17269449	255,0,0
chr2R	17367750	17408649	1	1		+	17367750	17408649	255,0,0
chr2R	17500550	17575849	1	1		+	17500550	17575849	255,0,0
chr2R	17575850	17611249	1	1		+	17575850	17611249	255,0,0
chr2R	17948750	17966849	1	1		+	17948750	17966849	255,0,0
chr2R	18261750	18298549	1	1		+	18261750	18298549	255,0,0
chr2R	18298550	18316049	1	1		+	18298550	18316049	255,0,0
chr2R	18483850	18530749	1	1		+	18483850	18530749	255,0,0
chr2R	18530750	18558149	1	1		+	18530750	18558149	255,0,0
chr2R	18558150	18587649	1	1		+	18558150	18587649	255,0,0
chr2R	18684950	18695249	1	1		+	18684950	18695249	255,0,0
chr2R	19241950	19440449	1	1		+	19241950	19440449	255,0,0
chr2R	19440450	19453249	1	1		+	19440450	19453249	255,0,0
chr2R	19542150	19598549	1	1		+	19542150	19598549	255,0,0
chr2R	19731250	19916349	1	1		+	19731250	19916349	255,0,0
chr2R	19916350	19956749	1	1		+	19916350	19956749	255,0,0
chr2R	19956750	20026049	1	1		+	19956750	20026049	255,0,0
chr2R	20026050	20223949	1	1		+	20026050	20223949	255,0,0
chr2R	20446650	20556049	1	1		+	20446650	20556049	255,0,0
chr3L	145250	175649	1	1		+	145250	175649	255,0,0
chr3L	175650	264549	1	1		+	175650	264549	255,0,0
chr3L	264550	326149	1	1		+	264550	326149	255,0,0
chr3L	604950	650549	1	1		+	604950	650549	255,0,0
chr3L	650550	834549	1	1		+	650550	834549	255,0,0
chr3L	1296550	1332849	1	1		+	1296550	1332849	255,0,0
chr3L	1332850	1351249	1	1		+	1332850	1351249	255,0,0
chr3L	1488850	1574549	1	1		+	1488850	1574549	255,0,0
chr3L	1574550	1668949	1	1		+	1574550	1668949	255,0,0
chr3L	1668950	1856249	1	1		+	1668950	1856249	255,0,0
chr3L	1856250	1883149	1	1		+	1856250	1883149	255,0,0
chr3L	2587050	2635049	1	1		+	2587050	2635049	255,0,0
chr3L	2766050	2851649	1	1		+	2766050	2851649	255,0,0
chr3L	3035550	3091449	1	1		+	3035550	3091449	255,0,0
chr3L	3144650	3224349	1	1		+	3144650	3224349	255,0,0
chr3L	3224350	3239949	1	1		+	3224350	3239949	255,0,0
chr3L	3304050	3376849	1	1		+	3304050	3376849	255,0,0
chr3L	4102550	4138449	1	1		+	4102550	4138449	255,0,0
chr3L	4240550	4260249	1	1		+	4240550	4260249	255,0,0
chr3L	4260250	4313849	1	1		+	4260250	4313849	255,0,0
chr3L	5557650	5601049	1	1		+	5557650	5601049	255,0,0
chr3L	5744950	5805049	1	1		+	5744950	5805049	255,0,0
chr3L	6937150	6973149	1	1		+	6937150	6973149	255,0,0
chr3L	7230050	7243549	1	1		+	7230050	7243549	255,0,0
chr3L	7316450	7372849	1	1		+	7316450	7372849	255,0,0
chr3L	7904650	7928549	1	1		+	7904650	7928549	255,0,0
chr3L	8170350	8192549	1	1		+	8170350	8192549	255,0,0
chr3L	8291250	8309149	1	1		+	8291250	8309149	255,0,0
chr3L	8332450	8353849	1	1		+	8332450	8353849	255,0,0
chr3L	8399250	8418549	1	1		+	8399250	8418549	255,0,0
chr3L	8418550	8570449	1	1		+	8418550	8570449	255,0,0
chr3L	8946450	8991849	1	1		+	8946450	8991849	255,0,0
chr3L	9353350	9395349	1	1		+	9353350	9395349	255,0,0
chr3L	9395350	9420849	1	1		+	9395350	9420849	255,0,0
chr3L	9420850	9481649	1	1		+	9420850	9481649	255,0,0
chr3L	9689550	9721749	1	1		+	9689550	9721749	255,0,0
chr3L	9721750	9753049	1	1		+	9721750	9753049	255,0,0
chr3L	9830850	9849049	1	1		+	9830850	9849049	255,0,0
chr3L	9849050	9895749	1	1		+	9849050	9895749	255,0,0
chr3L	10623450	10654649	1	1		+	10623450	10654649	255,0,0
chr3L	10654650	10691149	1	1		+	10654650	10691149	255,0,0
chr3L	10859750	10893049	1	1		+	10859750	10893049	255,0,0
chr3L	11113050	11204449	1	1		+	11113050	11204449	255,0,0
chr3L	11677050	11703049	1	1		+	11677050	11703049	255,0,0
chr3L	11764850	11828149	1	1		+	11764850	11828149	255,0,0
chr3L	12110450	12263949	1	1		+	12110450	12263949	255,0,0
chr3L	12462150	12528849	1	1		+	12462150	12528849	255,0,0
chr3L	12797950	12828049	1	1		+	12797950	12828049	255,0,0
chr3L	12998350	13014649	1	1		+	12998350	13014649	255,0,0
chr3L	13014650	13037949	1	1		+	13014650	13037949	255,0,0
chr3L	13995650	14045749	1	1		+	13995650	14045749	255,0,0
chr3L	14531250	14555149	1	1		+	14531250	14555149	255,0,0
chr3L	14753950	14798349	1	1		+	14753950	14798349	255,0,0
chr3L	14974550	15007149	1	1		+	14974550	15007149	255,0,0
chr3L	15087250	15135849	1	1		+	15087250	15135849	255,0,0
chr3L	15135850	15155849	1	1		+	15135850	15155849	255,0,0
chr3L	15490250	15516749	1	1		+	15490250	15516749	255,0,0
chr3L	15549050	15582549	1	1		+	15549050	15582549	255,0,0
chr3L	15801050	15830549	1	1		+	15801050	15830549	255,0,0
chr3L	15947450	16005349	1	1		+	15947450	16005349	255,0,0
chr3L	16030950	16044549	1	1		+	16030950	16044549	255,0,0
chr3L	16044550	16122849	1	1		+	16044550	16122849	255,0,0
chr3L	16372450	16405549	1	1		+	16372450	16405549	255,0,0
chr3L	16567750	16609049	1	1		+	16567750	16609049	255,0,0
chr3L	16834550	16859349	1	1		+	16834550	16859349	255,0,0
chr3L	16947150	17008249	1	1		+	16947150	17008249	255,0,0
chr3L	17008250	17048649	1	1		+	17008250	17048649	255,0,0
chr3L	17468650	17551949	1	1		+	17468650	17551949	255,0,0
chr3L	17837450	17904249	1	1		+	17837450	17904249	255,0,0
chr3L	18660450	18677249	1	1		+	18660450	18677249	255,0,0
chr3L	19056550	19087549	1	1		+	19056550	19087549	255,0,0
chr3L	19244850	19256949	1	1		+	19244850	19256949	255,0,0
chr3L	19578450	19637549	1	1		+	19578450	19637549	255,0,0
chr3L	19785650	19889649	1	1		+	19785650	19889649	255,0,0
chr3L	19902350	19921949	1	1		+	19902350	19921949	255,0,0
chr3L	20337950	20466849	1	1		+	20337950	20466849	255,0,0
chr3L	20466850	20511749	1	1		+	20466850	20511749	255,0,0
chr3L	20511750	20534649	1	1		+	20511750	20534649	255,0,0
chr3L	20761850	20779349	1	1		+	20761850	20779349	255,0,0
chr3L	21478550	21547649	1	1		+	21478550	21547649	255,0,0
chr3L	21816550	21835349	1	1		+	21816550	21835349	255,0,0
chr3L	22708050	22857349	1	1		+	22708050	22857349	255,0,0
chr3R	47050	163149	1	1		+	47050	163149	255,0,0
chr3R	205550	228949	1	1		+	205550	228949	255,0,0
chr3R	228950	305349	1	1		+	228950	305349	255,0,0
chr3R	1043350	1089449	1	1		+	1043350	1089449	255,0,0
chr3R	1179550	1194249	1	1		+	1179550	1194249	255,0,0
chr3R	1194250	1292049	1	1		+	1194250	1292049	255,0,0
chr3R	1292050	1374249	1	1		+	1292050	1374249	255,0,0
chr3R	1374250	1417949	1	1		+	1374250	1417949	255,0,0
chr3R	1417950	1495849	1	1		+	1417950	1495849	255,0,0
chr3R	1495850	1512449	1	1		+	1495850	1512449	255,0,0
chr3R	1558750	1583449	1	1		+	1558750	1583449	255,0,0
chr3R	1604850	1649149	1	1		+	1604850	1649149	255,0,0
chr3R	1649150	1688549	1	1		+	1649150	1688549	255,0,0
chr3R	2176750	2231349	1	1		+	2176750	2231349	255,0,0
chr3R	2911250	2951749	1	1		+	2911250	2951749	255,0,0
chr3R	2951750	3013749	1	1		+	2951750	3013749	255,0,0
chr3R	3826250	3860949	1	1		+	3826250	3860949	255,0,0
chr3R	3929050	3953549	1	1		+	3929050	3953549	255,0,0
chr3R	4165950	4186949	1	1		+	4165950	4186949	255,0,0
chr3R	4467150	4494049	1	1		+	4467150	4494049	255,0,0
chr3R	4626150	4647149	1	1		+	4626150	4647149	255,0,0
chr3R	4805850	4830049	1	1		+	4805850	4830049	255,0,0
chr3R	4830050	4844149	1	1		+	4830050	4844149	255,0,0
chr3R	4844150	4875649	1	1		+	4844150	4875649	255,0,0
chr3R	4875650	4894049	1	1		+	4875650	4894049	255,0,0
chr3R	5062650	5159949	1	1		+	5062650	5159949	255,0,0
chr3R	5226450	5323949	1	1		+	5226450	5323949	255,0,0
chr3R	5323950	5341749	1	1		+	5323950	5341749	255,0,0
chr3R	5341750	5376449	1	1		+	5341750	5376449	255,0,0
chr3R	5376450	5399349	1	1		+	5376450	5399349	255,0,0
chr3R	5399350	5417549	1	1		+	5399350	5417549	255,0,0
chr3R	5417550	5457649	1	1		+	5417550	5457649	255,0,0
chr3R	5530850	5588849	1	1		+	5530850	5588849	255,0,0
chr3R	5588850	5604949	1	1		+	5588850	5604949	255,0,0
chr3R	5604950	5636249	1	1		+	5604950	5636249	255,0,0
chr3R	5869050	5927949	1	1		+	5869050	5927949	255,0,0
chr3R	6676750	6695549	1	1		+	6676750	6695549	255,0,0
chr3R	6695550	6719449	1	1		+	6695550	6719449	255,0,0
chr3R	7024550	7037049	1	1		+	7024550	7037049	255,0,0
chr3R	7037050	7070149	1	1		+	7037050	7070149	255,0,0
chr3R	7384050	7445549	1	1		+	7384050	7445549	255,0,0
chr3R	7445550	7519749	1	1		+	7445550	7519749	255,0,0
chr3R	7589150	7647249	1	1		+	7589150	7647249	255,0,0
chr3R	8175750	8232249	1	1		+	8175750	8232249	255,0,0
chr3R	8232250	8454649	1	1		+	8232250	8454649	255,0,0
chr3R	8454650	8548849	1	1		+	8454650	8548849	255,0,0
chr3R	8808150	8855749	1	1		+	8808150	8855749	255,0,0
chr3R	9084650	9097949	1	1		+	9084650	9097949	255,0,0
chr3R	9207250	9227149	1	1		+	9207250	9227149	255,0,0
chr3R	9470950	9510749	1	1		+	9470950	9510749	255,0,0
chr3R	9510750	9538549	1	1		+	9510750	9538549	255,0,0
chr3R	9783450	9860049	1	1		+	9783450	9860049	255,0,0
chr3R	10112950	10153249	1	1		+	10112950	10153249	255,0,0
chr3R	10551250	10567449	1	1		+	10551250	10567449	255,0,0
chr3R	10703150	10730349	1	1		+	10703150	10730349	255,0,0
chr3R	11022950	11116849	1	1		+	11022950	11116849	255,0,0
chr3R	11116850	11156649	1	1		+	11116850	11156649	255,0,0
chr3R	11156650	11199549	1	1		+	11156650	11199549	255,0,0
chr3R	11619450	11630949	1	1		+	11619450	11630949	255,0,0
chr3R	11759750	11799849	1	1		+	11759750	11799849	255,0,0
chr3R	12007850	12032149	1	1		+	12007850	12032149	255,0,0
chr3R	12032150	12086949	1	1		+	12032150	12086949	255,0,0
chr3R	12086950	12175449	1	1		+	12086950	12175449	255,0,0
chr3R	12259350	12280849	1	1		+	12259350	12280849	255,0,0
chr3R	12280850	12325649	1	1		+	12280850	12325649	255,0,0
chr3R	12867750	12905749	1	1		+	12867750	12905749	255,0,0
chr3R	13207750	13227849	1	1		+	13207750	13227849	255,0,0
chr3R	13358950	13374149	1	1		+	13358950	13374149	255,0,0
chr3R	13506950	13544649	1	1		+	13506950	13544649	255,0,0
chr3R	13619550	13638149	1	1		+	13619550	13638149	255,0,0
chr3R	13989750	14024749	1	1		+	13989750	14024749	255,0,0
chr3R	14069950	14124649	1	1		+	14069950	14124649	255,0,0
chr3R	14223050	14239249	1	1		+	14223050	14239249	255,0,0
chr3R	14567550	14587149	1	1		+	14567550	14587149	255,0,0
chr3R	14730950	14755949	1	1		+	14730950	14755949	255,0,0
chr3R	14808250	14849649	1	1		+	14808250	14849649	255,0,0
chr3R	14849650	14921149	1	1		+	14849650	14921149	255,0,0
chr3R	14973950	14990249	1	1		+	14973950	14990249	255,0,0
chr3R	15672550	15735349	1	1		+	15672550	15735349	255,0,0
chr3R	15833850	15863149	1	1		+	15833850	15863149	255,0,0
chr3R	16076650	16157449	1	1		+	16076650	16157449	255,0,0
chr3R	16382050	16401749	1	1		+	16382050	16401749	255,0,0
chr3R	16401750	16419949	1	1		+	16401750	16419949	255,0,0
chr3R	16642350	16675849	1	1		+	16642350	16675849	255,0,0
chr3R	16894650	16922249	1	1		+	16894650	16922249	255,0,0
chr3R	16922250	16954349	1	1		+	16922250	16954349	255,0,0
chr3R	16954350	17007649	1	1		+	16954350	17007649	255,0,0
chr3R	17007650	17048749	1	1		+	17007650	17048749	255,0,0
chr3R	17048750	17121649	1	1		+	17048750	17121649	255,0,0
chr3R	17175950	17203449	1	1		+	17175950	17203449	255,0,0
chr3R	17688450	17715549	1	1		+	17688450	17715549	255,0,0
chr3R	17845250	17865949	1	1		+	17845250	17865949	255,0,0
chr3R	18180650	18272549	1	1		+	18180650	18272549	255,0,0
chr3R	18272550	18295449	1	1		+	18272550	18295449	255,0,0
chr3R	18409550	18577649	1	1		+	18409550	18577649	255,0,0
chr3R	19041450	19053349	1	1		+	19041450	19053349	255,0,0
chr3R	19172750	19185449	1	1		+	19172750	19185449	255,0,0
chr3R	19549250	19646349	1	1		+	19549250	19646349	255,0,0
chr3R	19748250	19821049	1	1		+	19748250	19821049	255,0,0
chr3R	19857150	19883649	1	1		+	19857150	19883649	255,0,0
chr3R	19933250	19995349	1	1		+	19933250	19995349	255,0,0
chr3R	19995350	20056149	1	1		+	19995350	20056149	255,0,0
chr3R	20056150	20185949	1	1		+	20056150	20185949	255,0,0
chr3R	20343450	20369649	1	1		+	20343450	20369649	255,0,0
chr3R	20451650	20488049	1	1		+	20451650	20488049	255,0,0
chr3R	20677350	20743649	1	1		+	20677350	20743649	255,0,0
chr3R	20743650	20771149	1	1		+	20743650	20771149	255,0,0
chr3R	20849950	20900149	1	1		+	20849950	20900149	255,0,0
chr3R	21072250	21091449	1	1		+	21072250	21091449	255,0,0
chr3R	21297550	21319349	1	1		+	21297550	21319349	255,0,0
chr3R	21473850	21512349	1	1		+	21473850	21512349	255,0,0
chr3R	21867950	21884449	1	1		+	21867950	21884449	255,0,0
chr3R	22690650	22705949	1	1		+	22690650	22705949	255,0,0
chr3R	22788150	22815649	1	1		+	22788150	22815649	255,0,0
chr3R	23052750	23064749	1	1		+	23052750	23064749	255,0,0
chr3R	23064750	23114949	1	1		+	23064750	23114949	255,0,0
chr3R	23407450	23431349	1	1		+	23407450	23431349	255,0,0
chr3R	23732750	23745949	1	1		+	23732750	23745949	255,0,0
chr3R	23745950	23788749	1	1		+	23745950	23788749	255,0,0
chr3R	24635350	24670749	1	1		+	24635350	24670749	255,0,0
chr3R	24851650	24888849	1	1		+	24851650	24888849	255,0,0
chr3R	24888850	24976049	1	1		+	24888850	24976049	255,0,0
chr3R	24976050	25076849	1	1		+	24976050	25076849	255,0,0
chr3R	25304550	25315549	1	1		+	25304550	25315549	255,0,0
chr3R	25315550	25329249	1	1		+	25315550	25329249	255,0,0
chr3R	25549050	25575449	1	1		+	25549050	25575449	255,0,0
chr3R	25575450	25683849	1	1		+	25575450	25683849	255,0,0
chr3R	25683850	25847149	1	1		+	25683850	25847149	255,0,0
chr3R	25847150	25884549	1	1		+	25847150	25884549	255,0,0
chr3R	26614250	26633649	1	1		+	26614250	26633649	255,0,0
chr3R	27020550	27044949	1	1		+	27020550	27044949	255,0,0
chr3R	27396350	27422949	1	1		+	27396350	27422949	255,0,0
chr3R	27422950	27439249	1	1		+	27422950	27439249	255,0,0
chr3R	27563450	27575149	1	1		+	27563450	27575149	255,0,0
chr3R	27575150	27637949	1	1		+	27575150	27637949	255,0,0
chrX	513050	551249	1	1		+	513050	551249	255,0,0
chrX	1129150	1268749	1	1		+	1129150	1268749	255,0,0
chrX	1268750	1293949	1	1		+	1268750	1293949	255,0,0
chrX	1356850	1375149	1	1		+	1356850	1375149	255,0,0
chrX	1375150	1410649	1	1		+	1375150	1410649	255,0,0
chrX	1753550	1971649	1	1		+	1753550	1971649	255,0,0
chrX	1971650	2013749	1	1		+	1971650	2013749	255,0,0
chrX	2013750	2117549	1	1		+	2013750	2117549	255,0,0
chrX	2117550	2165549	1	1		+	2117550	2165549	255,0,0
chrX	2480250	2529949	1	1		+	2480250	2529949	255,0,0
chrX	2529950	2636849	1	1		+	2529950	2636849	255,0,0
chrX	3830950	3863349	1	1		+	3830950	3863349	255,0,0
chrX	4424150	4449349	1	1		+	4424150	4449349	255,0,0
chrX	5182950	5314749	1	1		+	5182950	5314749	255,0,0
chrX	5507350	5560249	1	1		+	5507350	5560249	255,0,0
chrX	5560250	5632049	1	1		+	5560250	5632049	255,0,0
chrX	5632050	5658949	1	1		+	5632050	5658949	255,0,0
chrX	5771350	5813449	1	1		+	5771350	5813449	255,0,0
chrX	6118450	6195549	1	1		+	6118450	6195549	255,0,0
chrX	6241650	6268749	1	1		+	6241650	6268749	255,0,0
chrX	6549850	6591349	1	1		+	6549850	6591349	255,0,0
chrX	6636750	6698149	1	1		+	6636750	6698149	255,0,0
chrX	6698150	6770049	1	1		+	6698150	6770049	255,0,0
chrX	6992750	7005949	1	1		+	6992750	7005949	255,0,0
chrX	7573450	7635649	1	1		+	7573450	7635649	255,0,0
chrX	7788250	7827649	1	1		+	7788250	7827649	255,0,0
chrX	7827650	7862849	1	1		+	7827650	7862849	255,0,0
chrX	7952250	8072649	1	1		+	7952250	8072649	255,0,0
chrX	8291550	8333049	1	1		+	8291550	8333049	255,0,0
chrX	8411450	8468549	1	1		+	8411450	8468549	255,0,0
chrX	8468550	8484949	1	1		+	8468550	8484949	255,0,0
chrX	8572350	8616349	1	1		+	8572350	8616349	255,0,0
chrX	8981350	9002749	1	1		+	8981350	9002749	255,0,0
chrX	9002750	9051149	1	1		+	9002750	9051149	255,0,0
chrX	9051150	9177949	1	1		+	9051150	9177949	255,0,0
chrX	9447350	9471949	1	1		+	9447350	9471949	255,0,0
chrX	9471950	9579949	1	1		+	9471950	9579949	255,0,0
chrX	10353450	10372349	1	1		+	10353450	10372349	255,0,0
chrX	10639550	10660849	1	1		+	10639550	10660849	255,0,0
chrX	10660850	10680649	1	1		+	10660850	10680649	255,0,0
chrX	10680650	11049349	1	1		+	10680650	11049349	255,0,0
chrX	11219550	11249149	1	1		+	11219550	11249149	255,0,0
chrX	11249150	11263449	1	1		+	11249150	11263449	255,0,0
chrX	11348550	11514249	1	1		+	11348550	11514249	255,0,0
chrX	11573850	11588849	1	1		+	11573850	11588849	255,0,0
chrX	11588850	11609349	1	1		+	11588850	11609349	255,0,0
chrX	11685350	11747449	1	1		+	11685350	11747449	255,0,0
chrX	11747450	11905449	1	1		+	11747450	11905449	255,0,0
chrX	12470450	12506749	1	1		+	12470450	12506749	255,0,0
chrX	12506750	12551549	1	1		+	12506750	12551549	255,0,0
chrX	13181350	13196649	1	1		+	13181350	13196649	255,0,0
chrX	13196650	13230749	1	1		+	13196650	13230749	255,0,0
chrX	13266850	13281649	1	1		+	13266850	13281649	255,0,0
chrX	13499750	13519249	1	1		+	13499750	13519249	255,0,0
chrX	13519250	13634449	1	1		+	13519250	13634449	255,0,0
chrX	13634450	13676449	1	1		+	13634450	13676449	255,0,0
chrX	14719750	14734749	1	1		+	14719750	14734749	255,0,0
chrX	15342850	15488249	1	1		+	15342850	15488249	255,0,0
chrX	15593150	15698349	1	1		+	15593150	15698349	255,0,0
chrX	15698350	15880749	1	1		+	15698350	15880749	255,0,0
chrX	15880750	15899849	1	1		+	15880750	15899849	255,0,0
chrX	16165250	16178649	1	1		+	16165250	16178649	255,0,0
chrX	16178650	16316049	1	1		+	16178650	16316049	255,0,0
chrX	16316050	16342949	1	1		+	16316050	16342949	255,0,0
chrX	16442550	16531349	1	1		+	16442550	16531349	255,0,0
chrX	16531350	16646749	1	1		+	16531350	16646749	255,0,0
chrX	16679650	16772749	1	1		+	16679650	16772749	255,0,0
chrX	16772750	16837649	1	1		+	16772750	16837649	255,0,0
chrX	16837650	16863249	1	1		+	16837650	16863249	255,0,0
chrX	17521250	17588849	1	1		+	17521250	17588849	255,0,0
chrX	17588850	17604449	1	1		+	17588850	17604449	255,0,0
chrX	17632550	17647049	1	1		+	17632550	17647049	255,0,0
chrX	17716750	17798349	1	1		+	17716750	17798349	255,0,0
chrX	18261750	18413049	1	1		+	18261750	18413049	255,0,0
chrX	18529950	18550549	1	1		+	18529950	18550549	255,0,0
chrX	18673350	18736549	1	1		+	18673350	18736549	255,0,0
chrX	18736550	18793649	1	1		+	18736550	18793649	255,0,0
chrX	19372150	19389749	1	1		+	19372150	19389749	255,0,0
chrX	19389750	19596949	1	1		+	19389750	19596949	255,0,0
chrX	19596950	19639749	1	1		+	19596950	19639749	255,0,0
chrX	19639750	19658349	1	1		+	19639750	19658349	255,0,0
chrX	20054150	20070649	1	1		+	20054150	20070649	255,0,0
chrX	20261750	20380649	1	1		+	20261750	20380649	255,0,0
chrX	20380650	20397149	1	1		+	20380650	20397149	255,0,0
chrX	20899750	20926249	1	1		+	20899750	20926249	255,0,0
chrX	21193950	21244349	1	1		+	21193950	21244349	255,0,0
chrX	21843250	21889749	1	1		+	21843250	21889749	255,0,0
chr2L	295750	421449	2	2		+	295750	421449	255,165,0
chr2L	421450	472049	2	2		+	421450	472049	255,165,0
chr2L	21236350	21310649	2	2		+	21236350	21310649	255,165,0
chr2L	21310650	21657249	2	2		+	21310650	21657249	255,165,0
chr2L	21684450	21759149	2	2		+	21684450	21759149	255,165,0
chr2L	21759150	21899749	2	2		+	21759150	21899749	255,165,0
chr2L	21899750	22119649	2	2		+	21899750	22119649	255,165,0
chr2L	22119650	22168549	2	2		+	22119650	22168549	255,165,0
chr2L	22168550	22239349	2	2		+	22168550	22239349	255,165,0
chr2L	22239350	22277249	2	2		+	22239350	22277249	255,165,0
chr2L	22277250	22494049	2	2		+	22277250	22494049	255,165,0
chr2R	726750	928249	2	2		+	726750	928249	255,165,0
chr2R	928250	977849	2	2		+	928250	977849	255,165,0
chr2R	977850	1138249	2	2		+	977850	1138249	255,165,0
chr2R	1138250	1551949	2	2		+	1138250	1551949	255,165,0
chr2R	1551950	1588749	2	2		+	1551950	1588749	255,165,0
chr2R	1641950	1868149	2	2		+	1641950	1868149	255,165,0
chr2R	1975050	2500749	2	2		+	1975050	2500749	255,165,0
chr3L	40150	131049	2	2		+	40150	131049	255,165,0
chr3L	131050	145249	2	2		+	131050	145249	255,165,0
chr3L	11603350	11623849	2	2		+	11603350	11623849	255,165,0
chr3L	19889650	19902349	2	2		+	19889650	19902349	255,165,0
chr3L	19999450	20023449	2	2		+	19999450	20023449	255,165,0
chr3L	22070050	22708049	2	2		+	22070050	22708049	255,165,0
chr3L	22857350	23347949	2	2		+	22857350	23347949	255,165,0
chr3L	23347950	23788649	2	2		+	23347950	23788649	255,165,0
chr3R	732950	777149	2	2		+	732950	777149	255,165,0
chr4	87250	162949	2	2		+	87250	162949	255,165,0
chr4	162950	236049	2	2		+	162950	236049	255,165,0
chr4	236050	325849	2	2		+	236050	325849	255,165,0
chr4	325850	380249	2	2		+	325850	380249	255,165,0
chr4	380250	395449	2	2		+	380250	395449	255,165,0
chr4	395450	454649	2	2		+	395450	454649	255,165,0
chr4	454650	506649	2	2		+	454650	506649	255,165,0
chr4	506650	577949	2	2		+	506650	577949	255,165,0
chr4	577950	630649	2	2		+	577950	630649	255,165,0
chr4	630650	680049	2	2		+	630650	680049	255,165,0
chr4	680050	717749	2	2		+	680050	717749	255,165,0
chr4	717750	872949	2	2		+	717750	872949	255,165,0
chr4	872950	888649	2	2		+	872950	888649	255,165,0
chr4	888650	980349	2	2		+	888650	980349	255,165,0
chr4	980350	1048249	2	2		+	980350	1048249	255,165,0
chr4	1048250	1081349	2	2		+	1048250	1081349	255,165,0
chr4	1081350	1133349	2	2		+	1081350	1133349	255,165,0
chr4	1133350	1220449	2	2		+	1133350	1220449	255,165,0
chr4	1220450	1234749	2	2		+	1220450	1234749	255,165,0
chrX	12551550	12655649	2	2		+	12551550	12655649	255,165,0
chrX	13151750	13181349	2	2		+	13151750	13181349	255,165,0
chrX	17798350	18133049	2	2		+	17798350	18133049	255,165,0
chrX	20070650	20261749	2	2		+	20070650	20261749	255,165,0
chrX	21244350	21473449	2	2		+	21244350	21473449	255,165,0
chrX	21473450	21843249	2	2		+	21473450	21843249	255,165,0
chr2L	156850	250149	3	3		+	156850	250149	160,32,240
chr2L	870850	1078849	3	3		+	870850	1078849	160,32,240
chr2L	1185450	1615649	3	3		+	1185450	1615649	160,32,240
chr2L	1728650	1884549	3	3		+	1728650	1884549	160,32,240
chr2L	1988550	2037049	3	3		+	1988550	2037049	160,32,240
chr2L	2037050	2130349	3	3		+	2037050	2130349	160,32,240
chr2L	2193450	2216049	3	3		+	2193450	2216049	160,32,240
chr2L	2236450	2361649	3	3		+	2236450	2361649	160,32,240
chr2L	2592350	2740149	3	3		+	2592350	2740149	160,32,240
chr2L	2769350	2856849	3	3		+	2769350	2856849	160,32,240
chr2L	3173050	3303649	3	3		+	3173050	3303649	160,32,240
chr2L	3303650	3355549	3	3		+	3303650	3355549	160,32,240
chr2L	3355550	3371549	3	3		+	3355550	3371549	160,32,240
chr2L	3371550	3448749	3	3		+	3371550	3448749	160,32,240
chr2L	3479550	3530349	3	3		+	3479550	3530349	160,32,240
chr2L	3632750	3657549	3	3		+	3632750	3657549	160,32,240
chr2L	3812650	4183449	3	3		+	3812650	4183449	160,32,240
chr2L	4183450	4197949	3	3		+	4183450	4197949	160,32,240
chr2L	4227950	4333549	3	3		+	4227950	4333549	160,32,240
chr2L	4333550	4440549	3	3		+	4333550	4440549	160,32,240
chr2L	4460350	4793449	3	3		+	4460350	4793449	160,32,240
chr2L	5100250	5270649	3	3		+	5100250	5270649	160,32,240
chr2L	5543050	5800249	3	3		+	5543050	5800249	160,32,240
chr2L	5800250	5906949	3	3		+	5800250	5906949	160,32,240
chr2L	6099150	6323049	3	3		+	6099150	6323049	160,32,240
chr2L	6357750	6425249	3	3		+	6357750	6425249	160,32,240
chr2L	6497650	6526649	3	3		+	6497650	6526649	160,32,240
chr2L	6557450	6612149	3	3		+	6557450	6612149	160,32,240
chr2L	6718350	6796849	3	3		+	6718350	6796849	160,32,240
chr2L	6971350	7026949	3	3		+	6971350	7026949	160,32,240
chr2L	7065850	7180149	3	3		+	7065850	7180149	160,32,240
chr2L	7180150	7202649	3	3		+	7180150	7202649	160,32,240
chr2L	7222350	7258449	3	3		+	7222350	7258449	160,32,240
chr2L	7435550	7494949	3	3		+	7435550	7494949	160,32,240
chr2L	7494950	7534949	3	3		+	7494950	7534949	160,32,240
chr2L	7534950	7640049	3	3		+	7534950	7640049	160,32,240
chr2L	7640050	7782249	3	3		+	7640050	7782249	160,32,240
chr2L	7828750	8009349	3	3		+	7828750	8009349	160,32,240
chr2L	8009350	8030249	3	3		+	8009350	8030249	160,32,240
chr2L	8083350	8158649	3	3		+	8083350	8158649	160,32,240
chr2L	8197850	8301949	3	3		+	8197850	8301949	160,32,240
chr2L	8325050	8363549	3	3		+	8325050	8363549	160,32,240
chr2L	8534650	8685849	3	3		+	8534650	8685849	160,32,240
chr2L	8685850	8741549	3	3		+	8685850	8741549	160,32,240
chr2L	9122050	9167249	3	3		+	9122050	9167249	160,32,240
chr2L	9167250	9253349	3	3		+	9167250	9253349	160,32,240
chr2L	9253350	9493649	3	3		+	9253350	9493649	160,32,240
chr2L	9493650	9521349	3	3		+	9493650	9521349	160,32,240
chr2L	9521350	9567649	3	3		+	9521350	9567649	160,32,240
chr2L	9614650	9700049	3	3		+	9614650	9700049	160,32,240
chr2L	9700050	9758549	3	3		+	9700050	9758549	160,32,240
chr2L	9792550	9886349	3	3		+	9792550	9886349	160,32,240
chr2L	10010050	10055349	3	3		+	10010050	10055349	160,32,240
chr2L	10055350	10200649	3	3		+	10055350	10200649	160,32,240
chr2L	10438350	10479249	3	3		+	10438350	10479249	160,32,240
chr2L	10518550	10725649	3	3		+	10518550	10725649	160,32,240
chr2L	10770450	10966549	3	3		+	10770450	10966549	160,32,240
chr2L	11131250	11269149	3	3		+	11131250	11269149	160,32,240
chr2L	11517150	11808249	3	3		+	11517150	11808249	160,32,240
chr2L	11808250	11998849	3	3		+	11808250	11998849	160,32,240
chr2L	12110550	12424949	3	3		+	12110550	12424949	160,32,240
chr2L	12455650	12520249	3	3		+	12455650	12520249	160,32,240
chr2L	12520250	12548249	3	3		+	12520250	12548249	160,32,240
chr2L	12720550	12974649	3	3		+	12720550	12974649	160,32,240
chr2L	12974650	12998849	3	3		+	12974650	12998849	160,32,240
chr2L	13021550	13164949	3	3		+	13021550	13164949	160,32,240
chr2L	13221950	13366249	3	3		+	13221950	13366249	160,32,240
chr2L	13394950	13768849	3	3		+	13394950	13768849	160,32,240
chr2L	13837950	13905349	3	3		+	13837950	13905349	160,32,240
chr2L	13905350	14362249	3	3		+	13905350	14362249	160,32,240
chr2L	14362250	14706049	3	3		+	14362250	14706049	160,32,240
chr2L	14706050	14963349	3	3		+	14706050	14963349	160,32,240
chr2L	14963350	15007549	3	3		+	14963350	15007549	160,32,240
chr2L	15059650	15272549	3	3		+	15059650	15272549	160,32,240
chr2L	15499550	15749249	3	3		+	15499550	15749249	160,32,240
chr2L	15768950	16037449	3	3		+	15768950	16037449	160,32,240
chr2L	16037450	16254449	3	3		+	16037450	16254449	160,32,240
chr2L	16254450	16287349	3	3		+	16254450	16287349	160,32,240
chr2L	16487150	16543049	3	3		+	16487150	16543049	160,32,240
chr2L	16543050	16656949	3	3		+	16543050	16656949	160,32,240
chr2L	16679550	16720949	3	3		+	16679550	16720949	160,32,240
chr2L	16743750	16852549	3	3		+	16743750	16852549	160,32,240
chr2L	16852550	16887749	3	3		+	16852550	16887749	160,32,240
chr2L	16887750	17360849	3	3		+	16887750	17360849	160,32,240
chr2L	17360850	17384249	3	3		+	17360850	17384249	160,32,240
chr2L	17384250	17962449	3	3		+	17384250	17962449	160,32,240
chr2L	17962450	18118949	3	3		+	17962450	18118949	160,32,240
chr2L	18159150	18442149	3	3		+	18159150	18442149	160,32,240
chr2L	18442150	18588749	3	3		+	18442150	18588749	160,32,240
chr2L	18839550	18858949	3	3		+	18839550	18858949	160,32,240
chr2L	19396850	19427549	3	3		+	19396850	19427549	160,32,240
chr2L	19588250	19793449	3	3		+	19588250	19793449	160,32,240
chr2L	19793450	19809849	3	3		+	19793450	19809849	160,32,240
chr2L	19809850	19887749	3	3		+	19809850	19887749	160,32,240
chr2L	19887750	20066149	3	3		+	19887750	20066149	160,32,240
chr2L	20098650	20341449	3	3		+	20098650	20341449	160,32,240
chr2L	20341450	20465149	3	3		+	20341450	20465149	160,32,240
chr2L	20465150	20759249	3	3		+	20465150	20759249	160,32,240
chr2L	20923050	21052449	3	3		+	20923050	21052449	160,32,240
chr2L	21179350	21220549	3	3		+	21179350	21220549	160,32,240
chr2R	2646550	2696949	3	3		+	2646550	2696949	160,32,240
chr2R	2696950	2900549	3	3		+	2696950	2900549	160,32,240
chr2R	2957450	3271649	3	3		+	2957450	3271649	160,32,240
chr2R	3715250	3804049	3	3		+	3715250	3804049	160,32,240
chr2R	3827650	3844049	3	3		+	3827650	3844049	160,32,240
chr2R	4062350	4487249	3	3		+	4062350	4487249	160,32,240
chr2R	4621350	4779049	3	3		+	4621350	4779049	160,32,240
chr2R	4836450	4982849	3	3		+	4836450	4982849	160,32,240
chr2R	5332850	5429149	3	3		+	5332850	5429149	160,32,240
chr2R	5480450	5580949	3	3		+	5480450	5580949	160,32,240
chr2R	5580950	5708249	3	3		+	5580950	5708249	160,32,240
chr2R	6010950	6315649	3	3		+	6010950	6315649	160,32,240
chr2R	6365550	6446649	3	3		+	6365550	6446649	160,32,240
chr2R	6446650	6696549	3	3		+	6446650	6696549	160,32,240
chr2R	6788050	7020249	3	3		+	6788050	7020249	160,32,240
chr2R	7020250	7056749	3	3		+	7020250	7056749	160,32,240
chr2R	7056750	7111049	3	3		+	7056750	7111049	160,32,240
chr2R	7111050	7166549	3	3		+	7111050	7166549	160,32,240
chr2R	7194850	7242949	3	3		+	7194850	7242949	160,32,240
chr2R	7242950	7338949	3	3		+	7242950	7338949	160,32,240
chr2R	7538050	7877149	3	3		+	7538050	7877149	160,32,240
chr2R	7931950	8026549	3	3		+	7931950	8026549	160,32,240
chr2R	8088450	8207049	3	3		+	8088450	8207049	160,32,240
chr2R	8225550	8313649	3	3		+	8225550	8313649	160,32,240
chr2R	8324750	8340049	3	3		+	8324750	8340049	160,32,240
chr2R	8523350	8644149	3	3		+	8523350	8644149	160,32,240
chr2R	8644150	8756049	3	3		+	8644150	8756049	160,32,240
chr2R	8931950	9019949	3	3		+	8931950	9019949	160,32,240
chr2R	9056750	9085449	3	3		+	9056750	9085449	160,32,240
chr2R	9128750	9318949	3	3		+	9128750	9318949	160,32,240
chr2R	9338650	9370049	3	3		+	9338650	9370049	160,32,240
chr2R	9443850	9463849	3	3		+	9443850	9463849	160,32,240
chr2R	9463850	9479249	3	3		+	9463850	9479249	160,32,240
chr2R	9479250	9710549	3	3		+	9479250	9710549	160,32,240
chr2R	9748550	9828249	3	3		+	9748550	9828249	160,32,240
chr2R	9879050	10033449	3	3		+	9879050	10033449	160,32,240
chr2R	10158550	10191449	3	3		+	10158550	10191449	160,32,240
chr2R	10191450	10247349	3	3		+	10191450	10247349	160,32,240
chr2R	10511550	10656849	3	3		+	10511550	10656849	160,32,240
chr2R	10758250	10848949	3	3		+	10758250	10848949	160,32,240
chr2R	10881250	10997549	3	3		+	10881250	10997549	160,32,240
chr2R	10997550	11033449	3	3		+	10997550	11033449	160,32,240
chr2R	11033450	11087249	3	3		+	11033450	11087249	160,32,240
chr2R	11087250	11196949	3	3		+	11087250	11196949	160,32,240
chr2R	11268450	11398949	3	3		+	11268450	11398949	160,32,240
chr2R	11461250	11707449	3	3		+	11461250	11707449	160,32,240
chr2R	11736450	11820949	3	3		+	11736450	11820949	160,32,240
chr2R	12091750	12107949	3	3		+	12091750	12107949	160,32,240
chr2R	12235650	12458349	3	3		+	12235650	12458349	160,32,240
chr2R	12458350	12738149	3	3		+	12458350	12738149	160,32,240
chr2R	12756950	12891949	3	3		+	12756950	12891949	160,32,240
chr2R	12986250	13281149	3	3		+	12986250	13281149	160,32,240
chr2R	13480350	13551949	3	3		+	13480350	13551949	160,32,240
chr2R	13758950	14013949	3	3		+	13758950	14013949	160,32,240
chr2R	14072050	14285249	3	3		+	14072050	14285249	160,32,240
chr2R	14332750	14440249	3	3		+	14332750	14440249	160,32,240
chr2R	14440250	14499849	3	3		+	14440250	14499849	160,32,240
chr2R	14526650	14547049	3	3		+	14526650	14547049	160,32,240
chr2R	14547050	14575749	3	3		+	14547050	14575749	160,32,240
chr2R	14600150	14707049	3	3		+	14600150	14707049	160,32,240
chr2R	14746150	15009249	3	3		+	14746150	15009249	160,32,240
chr2R	15030450	15066949	3	3		+	15030450	15066949	160,32,240
chr2R	15066950	15116249	3	3		+	15066950	15116249	160,32,240
chr2R	15392050	15614049	3	3		+	15392050	15614049	160,32,240
chr2R	15614050	16437349	3	3		+	15614050	16437349	160,32,240
chr2R	16560450	16770549	3	3		+	16560450	16770549	160,32,240
chr2R	16912950	16944649	3	3		+	16912950	16944649	160,32,240
chr2R	17139750	17181549	3	3		+	17139750	17181549	160,32,240
chr2R	17269450	17367749	3	3		+	17269450	17367749	160,32,240
chr2R	17408650	17500549	3	3		+	17408650	17500549	160,32,240
chr2R	17611250	17948749	3	3		+	17611250	17948749	160,32,240
chr2R	18184550	18204549	3	3		+	18184550	18204549	160,32,240
chr2R	18204550	18261749	3	3		+	18204550	18261749	160,32,240
chr2R	18316050	18449849	3	3		+	18316050	18449849	160,32,240
chr2R	18449850	18483849	3	3		+	18449850	18483849	160,32,240
chr2R	18587650	18684949	3	3		+	18587650	18684949	160,32,240
chr2R	18966850	19241949	3	3		+	18966850	19241949	160,32,240
chr2R	19453250	19505149	3	3		+	19453250	19505149	160,32,240
chr2R	19598550	19636449	3	3		+	19598550	19636449	160,32,240
chr2R	19636450	19731249	3	3		+	19636450	19731249	160,32,240
chr2R	20556050	20631149	3	3		+	20556050	20631149	160,32,240
chr3L	441250	541549	3	3		+	441250	541549	160,32,240
chr3L	541550	604949	3	3		+	541550	604949	160,32,240
chr3L	834550	1296549	3	3		+	834550	1296549	160,32,240
chr3L	1971250	2376049	3	3		+	1971250	2376049	160,32,240
chr3L	2376050	2466449	3	3		+	2376050	2466449	160,32,240
chr3L	2466450	2554849	3	3		+	2466450	2554849	160,32,240
chr3L	2554850	2587049	3	3		+	2554850	2587049	160,32,240
chr3L	2635050	2766049	3	3		+	2635050	2766049	160,32,240
chr3L	2851650	3035549	3	3		+	2851650	3035549	160,32,240
chr3L	3091450	3144649	3	3		+	3091450	3144649	160,32,240
chr3L	3239950	3304049	3	3		+	3239950	3304049	160,32,240
chr3L	3376850	3516149	3	3		+	3376850	3516149	160,32,240
chr3L	3516150	3617549	3	3		+	3516150	3617549	160,32,240
chr3L	3617550	3764149	3	3		+	3617550	3764149	160,32,240
chr3L	3896150	4102549	3	3		+	3896150	4102549	160,32,240
chr3L	4313850	4365549	3	3		+	4313850	4365549	160,32,240
chr3L	4365550	4405249	3	3		+	4365550	4405249	160,32,240
chr3L	4405250	4625149	3	3		+	4405250	4625149	160,32,240
chr3L	4625150	4838949	3	3		+	4625150	4838949	160,32,240
chr3L	4838950	5127149	3	3		+	4838950	5127149	160,32,240
chr3L	5127150	5362149	3	3		+	5127150	5362149	160,32,240
chr3L	5362150	5503649	3	3		+	5362150	5503649	160,32,240
chr3L	5503650	5557649	3	3		+	5503650	5557649	160,32,240
chr3L	5601050	5744949	3	3		+	5601050	5744949	160,32,240
chr3L	5863150	6490049	3	3		+	5863150	6490049	160,32,240
chr3L	6490050	6541549	3	3		+	6490050	6541549	160,32,240
chr3L	6541550	6751349	3	3		+	6541550	6751349	160,32,240
chr3L	6989550	7085349	3	3		+	6989550	7085349	160,32,240
chr3L	7085350	7149149	3	3		+	7085350	7149149	160,32,240
chr3L	7149150	7230049	3	3		+	7149150	7230049	160,32,240
chr3L	7243550	7316449	3	3		+	7243550	7316449	160,32,240
chr3L	7372850	7807849	3	3		+	7372850	7807849	160,32,240
chr3L	7807850	7862149	3	3		+	7807850	7862149	160,32,240
chr3L	7862150	7904649	3	3		+	7862150	7904649	160,32,240
chr3L	7969150	8170349	3	3		+	7969150	8170349	160,32,240
chr3L	8192550	8291249	3	3		+	8192550	8291249	160,32,240
chr3L	8309150	8332449	3	3		+	8309150	8332449	160,32,240
chr3L	8353850	8399249	3	3		+	8353850	8399249	160,32,240
chr3L	8570450	8595049	3	3		+	8570450	8595049	160,32,240
chr3L	8710450	8946449	3	3		+	8710450	8946449	160,32,240
chr3L	9041650	9130449	3	3		+	9041650	9130449	160,32,240
chr3L	9130450	9326549	3	3		+	9130450	9326549	160,32,240
chr3L	9326550	9353349	3	3		+	9326550	9353349	160,32,240
chr3L	9481650	9503549	3	3		+	9481650	9503549	160,32,240
chr3L	9503550	9689549	3	3		+	9503550	9689549	160,32,240
chr3L	9753050	9830849	3	3		+	9753050	9830849	160,32,240
chr3L	9895750	10219149	3	3		+	9895750	10219149	160,32,240
chr3L	10219150	10623449	3	3		+	10219150	10623449	160,32,240
chr3L	10691150	10859749	3	3		+	10691150	10859749	160,32,240
chr3L	11204450	11239749	3	3		+	11204450	11239749	160,32,240
chr3L	11239750	11424349	3	3		+	11239750	11424349	160,32,240
chr3L	11424350	11483549	3	3		+	11424350	11483549	160,32,240
chr3L	11483550	11555149	3	3		+	11483550	11555149	160,32,240
chr3L	11555150	11603349	3	3		+	11555150	11603349	160,32,240
chr3L	11623850	11677049	3	3		+	11623850	11677049	160,32,240
chr3L	11703050	11764849	3	3		+	11703050	11764849	160,32,240
chr3L	11828150	11996349	3	3		+	11828150	11996349	160,32,240
chr3L	11996350	12110449	3	3		+	11996350	12110449	160,32,240
chr3L	12726750	12797949	3	3		+	12726750	12797949	160,32,240
chr3L	12828050	12998349	3	3		+	12828050	12998349	160,32,240
chr3L	13037950	13382549	3	3		+	13037950	13382549	160,32,240
chr3L	13479650	13995649	3	3		+	13479650	13995649	160,32,240
chr3L	14183650	14204649	3	3		+	14183650	14204649	160,32,240
chr3L	14204650	14531249	3	3		+	14204650	14531249	160,32,240
chr3L	14622250	14666149	3	3		+	14622250	14666149	160,32,240
chr3L	14666150	14753949	3	3		+	14666150	14753949	160,32,240
chr3L	14798350	14974549	3	3		+	14798350	14974549	160,32,240
chr3L	15155850	15490249	3	3		+	15155850	15490249	160,32,240
chr3L	15516750	15549049	3	3		+	15516750	15549049	160,32,240
chr3L	15582550	15801049	3	3		+	15582550	15801049	160,32,240
chr3L	15830550	15947449	3	3		+	15830550	15947449	160,32,240
chr3L	16122850	16372449	3	3		+	16122850	16372449	160,32,240
chr3L	16405550	16488949	3	3		+	16405550	16488949	160,32,240
chr3L	16488950	16567749	3	3		+	16488950	16567749	160,32,240
chr3L	16609050	16641549	3	3		+	16609050	16641549	160,32,240
chr3L	16641550	16705849	3	3		+	16641550	16705849	160,32,240
chr3L	16705850	16800949	3	3		+	16705850	16800949	160,32,240
chr3L	16800950	16834549	3	3		+	16800950	16834549	160,32,240
chr3L	16859350	16947149	3	3		+	16859350	16947149	160,32,240
chr3L	17048650	17427849	3	3		+	17048650	17427849	160,32,240
chr3L	17427850	17468649	3	3		+	17427850	17468649	160,32,240
chr3L	17551950	17590349	3	3		+	17551950	17590349	160,32,240
chr3L	17590350	17614049	3	3		+	17590350	17614049	160,32,240
chr3L	17614050	17837449	3	3		+	17614050	17837449	160,32,240
chr3L	17904250	18015849	3	3		+	17904250	18015849	160,32,240
chr3L	18015850	18105749	3	3		+	18015850	18105749	160,32,240
chr3L	18454950	18614849	3	3		+	18454950	18614849	160,32,240
chr3L	18614850	18660449	3	3		+	18614850	18660449	160,32,240
chr3L	18677250	18739949	3	3		+	18677250	18739949	160,32,240
chr3L	18739950	18814649	3	3		+	18739950	18814649	160,32,240
chr3L	18814650	18841249	3	3		+	18814650	18841249	160,32,240
chr3L	18862450	18891849	3	3		+	18862450	18891849	160,32,240
chr3L	18891850	18988949	3	3		+	18891850	18988949	160,32,240
chr3L	18988950	19056549	3	3		+	18988950	19056549	160,32,240
chr3L	19087550	19244849	3	3		+	19087550	19244849	160,32,240
chr3L	19256950	19578449	3	3		+	19256950	19578449	160,32,240
chr3L	19679750	19785649	3	3		+	19679750	19785649	160,32,240
chr3L	19921950	19999449	3	3		+	19921950	19999449	160,32,240
chr3L	20023450	20337949	3	3		+	20023450	20337949	160,32,240
chr3L	20779350	21022049	3	3		+	20779350	21022049	160,32,240
chr3L	21022050	21169649	3	3		+	21022050	21169649	160,32,240
chr3L	21169650	21274749	3	3		+	21169650	21274749	160,32,240
chr3L	21274750	21438749	3	3		+	21274750	21438749	160,32,240
chr3L	21835350	21948849	3	3		+	21835350	21948849	160,32,240
chr3L	21948850	22070049	3	3		+	21948850	22070049	160,32,240
chr3R	305350	484449	3	3		+	305350	484449	160,32,240
chr3R	484450	647449	3	3		+	484450	647449	160,32,240
chr3R	777150	795749	3	3		+	777150	795749	160,32,240
chr3R	795750	952349	3	3		+	795750	952349	160,32,240
chr3R	952350	1043349	3	3		+	952350	1043349	160,32,240
chr3R	1089450	1123949	3	3		+	1089450	1123949	160,32,240
chr3R	1123950	1179549	3	3		+	1123950	1179549	160,32,240
chr3R	1512450	1558749	3	3		+	1512450	1558749	160,32,240
chr3R	1583450	1604849	3	3		+	1583450	1604849	160,32,240
chr3R	1688550	2176749	3	3		+	1688550	2176749	160,32,240
chr3R	2231350	2283449	3	3		+	2231350	2283449	160,32,240
chr3R	2283450	2486549	3	3		+	2283450	2486549	160,32,240
chr3R	3013750	3370249	3	3		+	3013750	3370249	160,32,240
chr3R	3370250	3636349	3	3		+	3370250	3636349	160,32,240
chr3R	3636350	3711949	3	3		+	3636350	3711949	160,32,240
chr3R	3800050	3826249	3	3		+	3800050	3826249	160,32,240
chr3R	3860950	3929049	3	3		+	3860950	3929049	160,32,240
chr3R	4186950	4467149	3	3		+	4186950	4467149	160,32,240
chr3R	4541550	4626149	3	3		+	4541550	4626149	160,32,240
chr3R	4647150	4805849	3	3		+	4647150	4805849	160,32,240
chr3R	4894050	5062649	3	3		+	4894050	5062649	160,32,240
chr3R	5159950	5226449	3	3		+	5159950	5226449	160,32,240
chr3R	5457650	5504849	3	3		+	5457650	5504849	160,32,240
chr3R	5504850	5530849	3	3		+	5504850	5530849	160,32,240
chr3R	5636250	5695049	3	3		+	5636250	5695049	160,32,240
chr3R	5695050	5869049	3	3		+	5695050	5869049	160,32,240
chr3R	5927950	5960849	3	3		+	5927950	5960849	160,32,240
chr3R	5960850	6091149	3	3		+	5960850	6091149	160,32,240
chr3R	6091150	6242349	3	3		+	6091150	6242349	160,32,240
chr3R	6500050	6676749	3	3		+	6500050	6676749	160,32,240
chr3R	6719450	7024549	3	3		+	6719450	7024549	160,32,240
chr3R	7519750	7589149	3	3		+	7519750	7589149	160,32,240
chr3R	7647250	7775749	3	3		+	7647250	7775749	160,32,240
chr3R	7775750	8045249	3	3		+	7775750	8045249	160,32,240
chr3R	8548850	8808149	3	3		+	8548850	8808149	160,32,240
chr3R	8905450	9084649	3	3		+	8905450	9084649	160,32,240
chr3R	9097950	9190449	3	3		+	9097950	9190449	160,32,240
chr3R	9190450	9207249	3	3		+	9190450	9207249	160,32,240
chr3R	9227150	9261249	3	3		+	9227150	9261249	160,32,240
chr3R	9261250	9470949	3	3		+	9261250	9470949	160,32,240
chr3R	9538550	9608249	3	3		+	9538550	9608249	160,32,240
chr3R	9608250	9664549	3	3		+	9608250	9664549	160,32,240
chr3R	9860050	9915149	3	3		+	9860050	9915149	160,32,240
chr3R	9915150	10112949	3	3		+	9915150	10112949	160,32,240
chr3R	10153250	10216849	3	3		+	10153250	10216849	160,32,240
chr3R	10216850	10400749	3	3		+	10216850	10400749	160,32,240
chr3R	10400750	10480749	3	3		+	10400750	10480749	160,32,240
chr3R	10480750	10522449	3	3		+	10480750	10522449	160,32,240
chr3R	10522450	10551249	3	3		+	10522450	10551249	160,32,240
chr3R	10567450	10703149	3	3		+	10567450	10703149	160,32,240
chr3R	10730350	10920849	3	3		+	10730350	10920849	160,32,240
chr3R	10920850	10958549	3	3		+	10920850	10958549	160,32,240
chr3R	10958550	11022949	3	3		+	10958550	11022949	160,32,240
chr3R	11199550	11619449	3	3		+	11199550	11619449	160,32,240
chr3R	11630950	11759749	3	3		+	11630950	11759749	160,32,240
chr3R	11925050	12007849	3	3		+	11925050	12007849	160,32,240
chr3R	12905750	13207749	3	3		+	12905750	13207749	160,32,240
chr3R	13227850	13358949	3	3		+	13227850	13358949	160,32,240
chr3R	13442050	13506949	3	3		+	13442050	13506949	160,32,240
chr3R	13544650	13619549	3	3		+	13544650	13619549	160,32,240
chr3R	13638150	13989749	3	3		+	13638150	13989749	160,32,240
chr3R	14239250	14396149	3	3		+	14239250	14396149	160,32,240
chr3R	14396150	14567549	3	3		+	14396150	14567549	160,32,240
chr3R	14587150	14730949	3	3		+	14587150	14730949	160,32,240
chr3R	14755950	14808249	3	3		+	14755950	14808249	160,32,240
chr3R	14921150	14973949	3	3		+	14921150	14973949	160,32,240
chr3R	14990250	15051849	3	3		+	14990250	15051849	160,32,240
chr3R	15051850	15469649	3	3		+	15051850	15469649	160,32,240
chr3R	15469650	15672549	3	3		+	15469650	15672549	160,32,240
chr3R	15735350	15833849	3	3		+	15735350	15833849	160,32,240
chr3R	15863150	16076649	3	3		+	15863150	16076649	160,32,240
chr3R	16157450	16382049	3	3		+	16157450	16382049	160,32,240
chr3R	16419950	16561049	3	3		+	16419950	16561049	160,32,240
chr3R	16561050	16642349	3	3		+	16561050	16642349	160,32,240
chr3R	16675850	16775749	3	3		+	16675850	16775749	160,32,240
chr3R	16775750	16894649	3	3		+	16775750	16894649	160,32,240
chr3R	17121650	17175949	3	3		+	17121650	17175949	160,32,240
chr3R	17405950	17447149	3	3		+	17405950	17447149	160,32,240
chr3R	17447150	17488149	3	3		+	17447150	17488149	160,32,240
chr3R	17488150	17602849	3	3		+	17488150	17602849	160,32,240
chr3R	17602850	17647349	3	3		+	17602850	17647349	160,32,240
chr3R	17647350	17688449	3	3		+	17647350	17688449	160,32,240
chr3R	17715550	17845249	3	3		+	17715550	17845249	160,32,240
chr3R	17865950	18180649	3	3		+	17865950	18180649	160,32,240
chr3R	18295450	18409549	3	3		+	18295450	18409549	160,32,240
chr3R	18577650	18939049	3	3		+	18577650	18939049	160,32,240
chr3R	19157950	19172749	3	3		+	19157950	19172749	160,32,240
chr3R	19185450	19360849	3	3		+	19185450	19360849	160,32,240
chr3R	19360850	19505149	3	3		+	19360850	19505149	160,32,240
chr3R	19505150	19549249	3	3		+	19505150	19549249	160,32,240
chr3R	19646350	19717249	3	3		+	19646350	19717249	160,32,240
chr3R	19717250	19748249	3	3		+	19717250	19748249	160,32,240
chr3R	19821050	19857149	3	3		+	19821050	19857149	160,32,240
chr3R	19883650	19933249	3	3		+	19883650	19933249	160,32,240
chr3R	20185950	20343449	3	3		+	20185950	20343449	160,32,240
chr3R	20369650	20412449	3	3		+	20369650	20412449	160,32,240
chr3R	20412450	20451649	3	3		+	20412450	20451649	160,32,240
chr3R	20488050	20677349	3	3		+	20488050	20677349	160,32,240
chr3R	20957450	21019649	3	3		+	20957450	21019649	160,32,240
chr3R	21019650	21072249	3	3		+	21019650	21072249	160,32,240
chr3R	21091450	21297549	3	3		+	21091450	21297549	160,32,240
chr3R	21319350	21473849	3	3		+	21319350	21473849	160,32,240
chr3R	21512350	21714049	3	3		+	21512350	21714049	160,32,240
chr3R	21714050	21808749	3	3		+	21714050	21808749	160,32,240
chr3R	21930550	22086549	3	3		+	21930550	22086549	160,32,240
chr3R	22086550	22360849	3	3		+	22086550	22360849	160,32,240
chr3R	22360850	22391849	3	3		+	22360850	22391849	160,32,240
chr3R	22391850	22690649	3	3		+	22391850	22690649	160,32,240
chr3R	22705950	22772649	3	3		+	22705950	22772649	160,32,240
chr3R	22772650	22788149	3	3		+	22772650	22788149	160,32,240
chr3R	22815650	22977149	3	3		+	22815650	22977149	160,32,240
chr3R	23114950	23407449	3	3		+	23114950	23407449	160,32,240
chr3R	23431350	23732749	3	3		+	23431350	23732749	160,32,240
chr3R	23788750	24172149	3	3		+	23788750	24172149	160,32,240
chr3R	24172150	24371549	3	3		+	24172150	24371549	160,32,240
chr3R	24426550	24460649	3	3		+	24426550	24460649	160,32,240
chr3R	24460650	24499249	3	3		+	24460650	24499249	160,32,240
chr3R	24499250	24635349	3	3		+	24499250	24635349	160,32,240
chr3R	24670750	24713649	3	3		+	24670750	24713649	160,32,240
chr3R	24713650	24851649	3	3		+	24713650	24851649	160,32,240
chr3R	25076850	25304549	3	3		+	25076850	25304549	160,32,240
chr3R	25884550	26032749	3	3		+	25884550	26032749	160,32,240
chr3R	26032750	26250349	3	3		+	26032750	26250349	160,32,240
chr3R	26250350	26426849	3	3		+	26250350	26426849	160,32,240
chr3R	26886750	27020549	3	3		+	26886750	27020549	160,32,240
chr3R	27044950	27208749	3	3		+	27044950	27208749	160,32,240
chr3R	27208750	27231049	3	3		+	27208750	27231049	160,32,240
chr3R	27231050	27283949	3	3		+	27231050	27283949	160,32,240
chr3R	27283950	27396349	3	3		+	27283950	27396349	160,32,240
chr3R	27439250	27563449	3	3		+	27439250	27563449	160,32,240
chrX	173850	425249	3	3		+	173850	425249	160,32,240
chrX	551250	658949	3	3		+	551250	658949	160,32,240
chrX	658950	1129149	3	3		+	658950	1129149	160,32,240
chrX	1293950	1356849	3	3		+	1293950	1356849	160,32,240
chrX	1410650	1558649	3	3		+	1410650	1558649	160,32,240
chrX	1558650	1753549	3	3		+	1558650	1753549	160,32,240
chrX	2165550	2233549	3	3		+	2165550	2233549	160,32,240
chrX	2339550	2480249	3	3		+	2339550	2480249	160,32,240
chrX	2636850	3027849	3	3		+	2636850	3027849	160,32,240
chrX	3027850	3068649	3	3		+	3027850	3068649	160,32,240
chrX	3068650	3375849	3	3		+	3068650	3375849	160,32,240
chrX	3375850	3565849	3	3		+	3375850	3565849	160,32,240
chrX	3565850	3830949	3	3		+	3565850	3830949	160,32,240
chrX	3863350	3999249	3	3		+	3863350	3999249	160,32,240
chrX	3999250	4216249	3	3		+	3999250	4216249	160,32,240
chrX	4579350	4804449	3	3		+	4579350	4804449	160,32,240
chrX	4804450	4977649	3	3		+	4804450	4977649	160,32,240
chrX	4977650	5182949	3	3		+	4977650	5182949	160,32,240
chrX	5658950	5771349	3	3		+	5658950	5771349	160,32,240
chrX	5929350	6118449	3	3		+	5929350	6118449	160,32,240
chrX	6195550	6241649	3	3		+	6195550	6241649	160,32,240
chrX	6268750	6416849	3	3		+	6268750	6416849	160,32,240
chrX	6416850	6549849	3	3		+	6416850	6549849	160,32,240
chrX	6591350	6636749	3	3		+	6591350	6636749	160,32,240
chrX	6770050	6908249	3	3		+	6770050	6908249	160,32,240
chrX	6908250	6992749	3	3		+	6908250	6992749	160,32,240
chrX	7181450	7573449	3	3		+	7181450	7573449	160,32,240
chrX	7635650	7788249	3	3		+	7635650	7788249	160,32,240
chrX	7862850	7952249	3	3		+	7862850	7952249	160,32,240
chrX	8072650	8291549	3	3		+	8072650	8291549	160,32,240
chrX	8333050	8411449	3	3		+	8333050	8411449	160,32,240
chrX	8799250	8981349	3	3		+	8799250	8981349	160,32,240
chrX	9177950	9447349	3	3		+	9177950	9447349	160,32,240
chrX	9579950	9980449	3	3		+	9579950	9980449	160,32,240
chrX	9980450	10104849	3	3		+	9980450	10104849	160,32,240
chrX	10104850	10353449	3	3		+	10104850	10353449	160,32,240
chrX	10372350	10639549	3	3		+	10372350	10639549	160,32,240
chrX	11049350	11219549	3	3		+	11049350	11219549	160,32,240
chrX	11263450	11348549	3	3		+	11263450	11348549	160,32,240
chrX	11514250	11573849	3	3		+	11514250	11573849	160,32,240
chrX	11609350	11685349	3	3		+	11609350	11685349	160,32,240
chrX	11930050	12358149	3	3		+	11930050	12358149	160,32,240
chrX	12358150	12470449	3	3		+	12358150	12470449	160,32,240
chrX	12655650	12809449	3	3		+	12655650	12809449	160,32,240
chrX	12809450	13105649	3	3		+	12809450	13105649	160,32,240
chrX	13105650	13151749	3	3		+	13105650	13151749	160,32,240
chrX	13230750	13266849	3	3		+	13230750	13266849	160,32,240
chrX	13281650	13499749	3	3		+	13281650	13499749	160,32,240
chrX	13676450	14094749	3	3		+	13676450	14094749	160,32,240
chrX	14094750	14473649	3	3		+	14094750	14473649	160,32,240
chrX	14473650	14719749	3	3		+	14473650	14719749	160,32,240
chrX	14734750	14850849	3	3		+	14734750	14850849	160,32,240
chrX	14850850	14977749	3	3		+	14850850	14977749	160,32,240
chrX	14977750	15033049	3	3		+	14977750	15033049	160,32,240
chrX	15033050	15185849	3	3		+	15033050	15185849	160,32,240
chrX	15185850	15214149	3	3		+	15185850	15214149	160,32,240
chrX	15214150	15342849	3	3		+	15214150	15342849	160,32,240
chrX	15488250	15593149	3	3		+	15488250	15593149	160,32,240
chrX	15899850	15953249	3	3		+	15899850	15953249	160,32,240
chrX	15953250	15999749	3	3		+	15953250	15999749	160,32,240
chrX	16342950	16442549	3	3		+	16342950	16442549	160,32,240
chrX	16646750	16679649	3	3		+	16646750	16679649	160,32,240
chrX	16863250	16971849	3	3		+	16863250	16971849	160,32,240
chrX	16971850	17001449	3	3		+	16971850	17001449	160,32,240
chrX	17001450	17179749	3	3		+	17001450	17179749	160,32,240
chrX	17179750	17197349	3	3		+	17179750	17197349	160,32,240
chrX	17604450	17632549	3	3		+	17604450	17632549	160,32,240
chrX	18215150	18261749	3	3		+	18215150	18261749	160,32,240
chrX	18550550	18673349	3	3		+	18550550	18673349	160,32,240
chrX	18793650	19170949	3	3		+	18793650	19170949	160,32,240
chrX	19170950	19372149	3	3		+	19170950	19372149	160,32,240
chrX	19658350	19744249	3	3		+	19658350	19744249	160,32,240
chrX	19760950	19852249	3	3		+	19760950	19852249	160,32,240
chrX	19852250	20054149	3	3		+	19852250	20054149	160,32,240
chrX	20630450	20899749	3	3		+	20630450	20899749	160,32,240
chrX	20926250	21193949	3	3		+	20926250	21193949	160,32,240
chr2L	488650	542149	4	4		+	488650	542149	173,216,230
chr2L	542150	809749	4	4		+	542150	809749	173,216,230
chr2L	1884550	1973149	4	4		+	1884550	1973149	173,216,230
chr2L	2375950	2567449	4	4		+	2375950	2567449	173,216,230
chr2L	3530350	3632749	4	4		+	3530350	3632749	173,216,230
chr2L	3657550	3812649	4	4		+	3657550	3812649	173,216,230
chr2L	4793450	4811949	4	4		+	4793450	4811949	173,216,230
chr2L	5325150	5516149	4	4		+	5325150	5516149	173,216,230
chr2L	5906950	5944649	4	4		+	5906950	5944649	173,216,230
chr2L	6526650	6557449	4	4		+	6526650	6557449	173,216,230
chr2L	6683050	6718349	4	4		+	6683050	6718349	173,216,230
chr2L	6796850	6852049	4	4		+	6796850	6852049	173,216,230
chr2L	7258450	7435549	4	4		+	7258450	7435549	173,216,230
chr2L	8741550	9122049	4	4		+	8741550	9122049	173,216,230
chr2L	9567650	9614649	4	4		+	9567650	9614649	173,216,230
chr2L	11269150	11517149	4	4		+	11269150	11517149	173,216,230
chr2L	11998850	12094749	4	4		+	11998850	12094749	173,216,230
chr2L	12548250	12720549	4	4		+	12548250	12720549	173,216,230
chr2L	15272550	15499549	4	4		+	15272550	15499549	173,216,230
chr2L	16357350	16487149	4	4		+	16357350	16487149	173,216,230
chr2L	18707150	18839549	4	4		+	18707150	18839549	173,216,230
chr2L	18858950	18943949	4	4		+	18858950	18943949	173,216,230
chr2L	19053850	19133849	4	4		+	19053850	19133849	173,216,230
chr2L	19189450	19396849	4	4		+	19189450	19396849	173,216,230
chr2L	20759250	20923049	4	4		+	20759250	20923049	173,216,230
chr2R	1588750	1641949	4	4		+	1588750	1641949	173,216,230
chr2R	3271650	3427049	4	4		+	3271650	3427049	173,216,230
chr2R	3877250	3902649	4	4		+	3877250	3902649	173,216,230
chr2R	3902650	3955049	4	4		+	3902650	3955049	173,216,230
chr2R	4520150	4553349	4	4		+	4520150	4553349	173,216,230
chr2R	5078350	5287949	4	4		+	5078350	5287949	173,216,230
chr2R	5844150	5913049	4	4		+	5844150	5913049	173,216,230
chr2R	7338950	7505049	4	4		+	7338950	7505049	173,216,230
chr2R	8756050	8802749	4	4		+	8756050	8802749	173,216,230
chr2R	8802750	8931949	4	4		+	8802750	8931949	173,216,230
chr2R	10061850	10104549	4	4		+	10061850	10104549	173,216,230
chr2R	10247350	10367449	4	4		+	10247350	10367449	173,216,230
chr2R	10656850	10741749	4	4		+	10656850	10741749	173,216,230
chr2R	11196950	11236249	4	4		+	11196950	11236249	173,216,230
chr2R	11707450	11736449	4	4		+	11707450	11736449	173,216,230
chr2R	13682150	13737049	4	4		+	13682150	13737049	173,216,230
chr2R	16770550	16863449	4	4		+	16770550	16863449	173,216,230
chr2R	16863450	16883949	4	4		+	16863450	16883949	173,216,230
chr2R	17966850	18184549	4	4		+	17966850	18184549	173,216,230
chr2R	18695250	18825349	4	4		+	18695250	18825349	173,216,230
chr2R	18825350	18966849	4	4		+	18825350	18966849	173,216,230
chr2R	19505150	19542149	4	4		+	19505150	19542149	173,216,230
chr2R	20223950	20446649	4	4		+	20223950	20446649	173,216,230
chr2R	20631150	20826449	4	4		+	20631150	20826449	173,216,230
chr3L	326150	441249	4	4		+	326150	441249	173,216,230
chr3L	1351250	1488849	4	4		+	1351250	1488849	173,216,230
chr3L	1883150	1971249	4	4		+	1883150	1971249	173,216,230
chr3L	3764150	3896149	4	4		+	3764150	3896149	173,216,230
chr3L	4138450	4240549	4	4		+	4138450	4240549	173,216,230
chr3L	5805050	5863149	4	4		+	5805050	5863149	173,216,230
chr3L	6751350	6937149	4	4		+	6751350	6937149	173,216,230
chr3L	6973150	6989549	4	4		+	6973150	6989549	173,216,230
chr3L	7928550	7969149	4	4		+	7928550	7969149	173,216,230
chr3L	8595050	8710449	4	4		+	8595050	8710449	173,216,230
chr3L	8991850	9041649	4	4		+	8991850	9041649	173,216,230
chr3L	10893050	11113049	4	4		+	10893050	11113049	173,216,230
chr3L	12263950	12408949	4	4		+	12263950	12408949	173,216,230
chr3L	12408950	12462149	4	4		+	12408950	12462149	173,216,230
chr3L	12528850	12726749	4	4		+	12528850	12726749	173,216,230
chr3L	13382550	13479649	4	4		+	13382550	13479649	173,216,230
chr3L	14045750	14183649	4	4		+	14045750	14183649	173,216,230
chr3L	14555150	14622249	4	4		+	14555150	14622249	173,216,230
chr3L	15007150	15087249	4	4		+	15007150	15087249	173,216,230
chr3L	16005350	16030949	4	4		+	16005350	16030949	173,216,230
chr3L	18105750	18454949	4	4		+	18105750	18454949	173,216,230
chr3L	18841250	18862449	4	4		+	18841250	18862449	173,216,230
chr3L	19637550	19679749	4	4		+	19637550	19679749	173,216,230
chr3L	20534650	20761849	4	4		+	20534650	20761849	173,216,230
chr3L	21438750	21478549	4	4		+	21438750	21478549	173,216,230
chr3L	21547650	21816549	4	4		+	21547650	21816549	173,216,230
chr3R	163150	205549	4	4		+	163150	205549	173,216,230
chr3R	647450	732949	4	4		+	647450	732949	173,216,230
chr3R	2486550	2586049	4	4		+	2486550	2586049	173,216,230
chr3R	2586050	2737649	4	4		+	2586050	2737649	173,216,230
chr3R	2737650	2911249	4	4		+	2737650	2911249	173,216,230
chr3R	3711950	3800049	4	4		+	3711950	3800049	173,216,230
chr3R	3953550	4058749	4	4		+	3953550	4058749	173,216,230
chr3R	4058750	4142149	4	4		+	4058750	4142149	173,216,230
chr3R	4142150	4165949	4	4		+	4142150	4165949	173,216,230
chr3R	4494050	4541549	4	4		+	4494050	4541549	173,216,230
chr3R	6242350	6500049	4	4		+	6242350	6500049	173,216,230
chr3R	7070150	7384049	4	4		+	7070150	7384049	173,216,230
chr3R	8045250	8175749	4	4		+	8045250	8175749	173,216,230
chr3R	8855750	8905449	4	4		+	8855750	8905449	173,216,230
chr3R	9664550	9783449	4	4		+	9664550	9783449	173,216,230
chr3R	11799850	11925049	4	4		+	11799850	11925049	173,216,230
chr3R	12175450	12259349	4	4		+	12175450	12259349	173,216,230
chr3R	12325650	12482749	4	4		+	12325650	12482749	173,216,230
chr3R	12482750	12625349	4	4		+	12482750	12625349	173,216,230
chr3R	12625350	12820349	4	4		+	12625350	12820349	173,216,230
chr3R	12820350	12867749	4	4		+	12820350	12867749	173,216,230
chr3R	13374150	13442049	4	4		+	13374150	13442049	173,216,230
chr3R	14024750	14069949	4	4		+	14024750	14069949	173,216,230
chr3R	14124650	14223049	4	4		+	14124650	14223049	173,216,230
chr3R	17203450	17346149	4	4		+	17203450	17346149	173,216,230
chr3R	17346150	17405949	4	4		+	17346150	17405949	173,216,230
chr3R	18939050	18983849	4	4		+	18939050	18983849	173,216,230
chr3R	18983850	19016649	4	4		+	18983850	19016649	173,216,230
chr3R	19016650	19041449	4	4		+	19016650	19041449	173,216,230
chr3R	19053350	19157949	4	4		+	19053350	19157949	173,216,230
chr3R	20771150	20849949	4	4		+	20771150	20849949	173,216,230
chr3R	20900150	20957449	4	4		+	20900150	20957449	173,216,230
chr3R	21808750	21867949	4	4		+	21808750	21867949	173,216,230
chr3R	21884450	21930549	4	4		+	21884450	21930549	173,216,230
chr3R	22977150	23052749	4	4		+	22977150	23052749	173,216,230
chr3R	24371550	24426549	4	4		+	24371550	24426549	173,216,230
chr3R	25329250	25416949	4	4		+	25329250	25416949	173,216,230
chr3R	25416950	25549049	4	4		+	25416950	25549049	173,216,230
chr3R	26426850	26614249	4	4		+	26426850	26614249	173,216,230
chr3R	26633650	26714949	4	4		+	26633650	26714949	173,216,230
chr3R	26714950	26886749	4	4		+	26714950	26886749	173,216,230
chrX	425250	513049	4	4		+	425250	513049	173,216,230
chrX	2233550	2339549	4	4		+	2233550	2339549	173,216,230
chrX	4216250	4424149	4	4		+	4216250	4424149	173,216,230
chrX	4449350	4579349	4	4		+	4449350	4579349	173,216,230
chrX	5314750	5507349	4	4		+	5314750	5507349	173,216,230
chrX	5813450	5929349	4	4		+	5813450	5929349	173,216,230
chrX	7005950	7181449	4	4		+	7005950	7181449	173,216,230
chrX	8484950	8572349	4	4		+	8484950	8572349	173,216,230
chrX	8616350	8799249	4	4		+	8616350	8799249	173,216,230
chrX	15999750	16165249	4	4		+	15999750	16165249	173,216,230
chrX	17197350	17521249	4	4		+	17197350	17521249	173,216,230
chrX	17647050	17716749	4	4		+	17647050	17716749	173,216,230
chrX	18133050	18215149	4	4		+	18133050	18215149	173,216,230
chrX	18413050	18529949	4	4		+	18413050	18529949	173,216,230
chrX	20397150	20630449	4	4		+	20397150	20630449	173,216,230
